phase4_week3/simulation_reports/work_sim_gate_20250814_023258/tb_neuraedge_pe_gate.vcd
$date
	Thu Aug 14 02:32:58 2025
$end
$version
	Icarus Verilog
$end
$timescale
	1ps
$end
$scope module tb_neuraedge_pe_gate $end
$var wire 8 ! weight_out [7:0] $end
$var wire 1 " data_valid_out $end
$var wire 8 # data_out [7:0] $end
$var wire 1 $ accum_valid $end
$var wire 32 % accum_out [31:0] $end
$var parameter 32 & CLOCK_PERIOD $end
$var parameter 32 ' MAX_CYCLES $end
$var parameter 72 ( SDF_TYPE $end
$var parameter 32 ) TIMEOUT_NS $end
$var reg 1 * accumulate_en $end
$var reg 1 + clk $end
$var reg 8 , data_in [7:0] $end
$var reg 1 - data_valid $end
$var reg 1 . mac_clear $end
$var reg 1 / pe_enable $end
$var reg 1 0 rst_n $end
$var reg 8 1 weight_in [7:0] $end
$var integer 32 2 cycle_count [31:0] $end
$var integer 32 3 errors [31:0] $end
$var integer 32 4 test_case [31:0] $end
$var integer 32 5 warnings [31:0] $end
$scope module dut $end
$var wire 1 6 _0000_ $end
$var wire 1 7 _0001_ $end
$var wire 1 8 _0002_ $end
$var wire 1 9 _0003_ $end
$var wire 1 : _0004_ $end
$var wire 1 ; _0005_ $end
$var wire 1 < _0006_ $end
$var wire 1 = _0007_ $end
$var wire 1 > _0008_ $end
$var wire 1 ? _0009_ $end
$var wire 1 @ _0010_ $end
$var wire 1 A _0011_ $end
$var wire 1 B _0012_ $end
$var wire 1 C _0013_ $end
$var wire 1 D _0014_ $end
$var wire 1 E _0015_ $end
$var wire 1 F _0016_ $end
$var wire 1 G _0017_ $end
$var wire 1 H _0018_ $end
$var wire 1 I _0019_ $end
$var wire 1 J _0020_ $end
$var wire 1 K _0021_ $end
$var wire 1 L _0022_ $end
$var wire 1 M _0023_ $end
$var wire 1 N _0024_ $end
$var wire 1 O _0025_ $end
$var wire 1 P _0026_ $end
$var wire 1 Q _0027_ $end
$var wire 1 R _0028_ $end
$var wire 1 S _0029_ $end
$var wire 1 T _0030_ $end
$var wire 1 U _0031_ $end
$var wire 1 V _0032_ $end
$var wire 1 W _0033_ $end
$var wire 1 X _0034_ $end
$var wire 1 Y _0035_ $end
$var wire 1 Z _0036_ $end
$var wire 1 [ _0037_ $end
$var wire 1 \ _0038_ $end
$var wire 1 ] _0039_ $end
$var wire 1 ^ _0040_ $end
$var wire 1 _ _0041_ $end
$var wire 1 ` _0042_ $end
$var wire 1 a _0043_ $end
$var wire 1 b _0044_ $end
$var wire 1 c _0045_ $end
$var wire 1 d _0046_ $end
$var wire 1 e _0047_ $end
$var wire 1 f _0048_ $end
$var wire 1 g _0049_ $end
$var wire 1 h _0050_ $end
$var wire 1 i _0051_ $end
$var wire 1 j _0052_ $end
$var wire 1 k _0053_ $end
$var wire 1 l _0054_ $end
$var wire 1 m _0055_ $end
$var wire 1 n _0056_ $end
$var wire 1 o _0057_ $end
$var wire 1 p _0058_ $end
$var wire 1 q _0059_ $end
$var wire 1 r _0060_ $end
$var wire 1 s _0061_ $end
$var wire 1 t _0062_ $end
$var wire 1 u _0063_ $end
$var wire 1 v _0064_ $end
$var wire 1 w _0065_ $end
$var wire 1 x _0066_ $end
$var wire 1 y _0067_ $end
$var wire 1 z _0068_ $end
$var wire 1 { _0069_ $end
$var wire 1 | _0070_ $end
$var wire 1 } _0071_ $end
$var wire 1 ~ _0072_ $end
$var wire 1 !" _0073_ $end
$var wire 1 "" _0074_ $end
$var wire 1 #" _0075_ $end
$var wire 1 $" _0076_ $end
$var wire 1 %" _0077_ $end
$var wire 1 &" _0078_ $end
$var wire 1 '" _0079_ $end
$var wire 1 (" _0080_ $end
$var wire 1 )" _0081_ $end
$var wire 1 *" _0082_ $end
$var wire 1 +" _0083_ $end
$var wire 1 ," _0084_ $end
$var wire 1 -" _0085_ $end
$var wire 1 ." _0086_ $end
$var wire 1 /" _0087_ $end
$var wire 1 0" _0088_ $end
$var wire 1 1" _0089_ $end
$var wire 1 2" _0090_ $end
$var wire 1 3" _0091_ $end
$var wire 1 4" _0092_ $end
$var wire 1 5" _0093_ $end
$var wire 1 6" _0094_ $end
$var wire 1 7" _0095_ $end
$var wire 1 8" _0096_ $end
$var wire 1 9" _0097_ $end
$var wire 1 :" _0098_ $end
$var wire 1 ;" _0099_ $end
$var wire 1 <" _0100_ $end
$var wire 1 =" _0101_ $end
$var wire 1 >" _0102_ $end
$var wire 1 ?" _0103_ $end
$var wire 1 @" _0104_ $end
$var wire 1 A" _0105_ $end
$var wire 1 B" _0106_ $end
$var wire 1 C" _0107_ $end
$var wire 1 D" _0108_ $end
$var wire 1 E" _0109_ $end
$var wire 1 F" _0110_ $end
$var wire 1 G" _0111_ $end
$var wire 1 H" _0112_ $end
$var wire 1 I" _0113_ $end
$var wire 1 J" _0114_ $end
$var wire 1 K" _0115_ $end
$var wire 1 L" _0116_ $end
$var wire 1 M" _0117_ $end
$var wire 1 N" _0118_ $end
$var wire 1 O" _0119_ $end
$var wire 1 P" _0120_ $end
$var wire 1 Q" _0121_ $end
$var wire 1 R" _0122_ $end
$var wire 1 S" _0123_ $end
$var wire 1 T" _0124_ $end
$var wire 1 U" _0125_ $end
$var wire 1 V" _0126_ $end
$var wire 1 W" _0127_ $end
$var wire 1 X" _0128_ $end
$var wire 1 Y" _0129_ $end
$var wire 1 Z" _0130_ $end
$var wire 1 [" _0131_ $end
$var wire 1 \" _0132_ $end
$var wire 1 ]" _0133_ $end
$var wire 1 ^" _0134_ $end
$var wire 1 _" _0135_ $end
$var wire 1 `" _0136_ $end
$var wire 1 a" _0137_ $end
$var wire 1 b" _0138_ $end
$var wire 1 c" _0139_ $end
$var wire 1 d" _0140_ $end
$var wire 1 e" _0141_ $end
$var wire 1 f" _0142_ $end
$var wire 1 g" _0143_ $end
$var wire 1 h" _0144_ $end
$var wire 1 i" _0145_ $end
$var wire 1 j" _0146_ $end
$var wire 1 k" _0147_ $end
$var wire 1 l" _0148_ $end
$var wire 1 m" _0149_ $end
$var wire 1 n" _0150_ $end
$var wire 1 o" _0151_ $end
$var wire 1 p" _0152_ $end
$var wire 1 q" _0153_ $end
$var wire 1 r" _0154_ $end
$var wire 1 s" _0155_ $end
$var wire 1 t" _0156_ $end
$var wire 1 u" _0157_ $end
$var wire 1 v" _0158_ $end
$var wire 1 w" _0159_ $end
$var wire 1 x" _0160_ $end
$var wire 1 y" _0161_ $end
$var wire 1 z" _0162_ $end
$var wire 1 {" _0163_ $end
$var wire 1 |" _0164_ $end
$var wire 1 }" _0165_ $end
$var wire 1 ~" _0166_ $end
$var wire 1 !# _0167_ $end
$var wire 1 "# _0168_ $end
$var wire 1 ## _0169_ $end
$var wire 1 $# _0170_ $end
$var wire 1 %# _0171_ $end
$var wire 1 &# _0172_ $end
$var wire 1 '# _0173_ $end
$var wire 1 (# _0174_ $end
$var wire 1 )# _0175_ $end
$var wire 1 *# _0176_ $end
$var wire 1 +# _0177_ $end
$var wire 1 ,# _0178_ $end
$var wire 1 -# _0179_ $end
$var wire 1 .# _0180_ $end
$var wire 1 /# _0181_ $end
$var wire 1 0# _0182_ $end
$var wire 1 1# _0183_ $end
$var wire 1 2# _0184_ $end
$var wire 1 3# _0185_ $end
$var wire 1 4# _0186_ $end
$var wire 1 5# _0187_ $end
$var wire 1 6# _0188_ $end
$var wire 1 7# _0189_ $end
$var wire 1 8# _0190_ $end
$var wire 1 9# _0191_ $end
$var wire 1 :# _0192_ $end
$var wire 1 ;# _0193_ $end
$var wire 1 <# _0194_ $end
$var wire 1 =# _0195_ $end
$var wire 1 ># _0196_ $end
$var wire 1 ?# _0197_ $end
$var wire 1 @# _0198_ $end
$var wire 1 A# _0199_ $end
$var wire 1 B# _0200_ $end
$var wire 1 C# _0201_ $end
$var wire 1 D# _0202_ $end
$var wire 1 E# _0203_ $end
$var wire 1 F# _0204_ $end
$var wire 1 G# _0205_ $end
$var wire 1 H# _0206_ $end
$var wire 1 I# _0207_ $end
$var wire 1 J# _0208_ $end
$var wire 1 K# _0209_ $end
$var wire 1 L# _0210_ $end
$var wire 1 M# _0211_ $end
$var wire 1 N# _0212_ $end
$var wire 1 O# _0213_ $end
$var wire 1 P# _0214_ $end
$var wire 1 Q# _0215_ $end
$var wire 1 R# _0216_ $end
$var wire 1 S# _0217_ $end
$var wire 1 T# _0218_ $end
$var wire 1 U# _0219_ $end
$var wire 1 V# _0220_ $end
$var wire 1 W# _0221_ $end
$var wire 1 X# _0222_ $end
$var wire 1 Y# _0223_ $end
$var wire 1 Z# _0224_ $end
$var wire 1 [# _0225_ $end
$var wire 1 \# _0226_ $end
$var wire 1 ]# _0227_ $end
$var wire 1 ^# _0228_ $end
$var wire 1 _# _0229_ $end
$var wire 1 `# _0230_ $end
$var wire 1 a# _0231_ $end
$var wire 1 b# _0232_ $end
$var wire 1 c# _0233_ $end
$var wire 1 d# _0234_ $end
$var wire 1 e# _0235_ $end
$var wire 1 f# _0236_ $end
$var wire 1 g# _0237_ $end
$var wire 1 h# _0238_ $end
$var wire 1 i# _0239_ $end
$var wire 1 j# _0240_ $end
$var wire 1 k# _0241_ $end
$var wire 1 l# _0242_ $end
$var wire 1 m# _0243_ $end
$var wire 1 n# _0244_ $end
$var wire 1 o# _0245_ $end
$var wire 1 p# _0246_ $end
$var wire 1 q# _0247_ $end
$var wire 1 r# _0248_ $end
$var wire 1 s# _0249_ $end
$var wire 1 t# _0250_ $end
$var wire 1 u# _0251_ $end
$var wire 1 v# _0252_ $end
$var wire 1 w# _0253_ $end
$var wire 1 x# _0254_ $end
$var wire 1 y# _0255_ $end
$var wire 1 z# _0256_ $end
$var wire 1 {# _0257_ $end
$var wire 1 |# _0258_ $end
$var wire 1 }# _0259_ $end
$var wire 1 ~# _0260_ $end
$var wire 1 !$ _0261_ $end
$var wire 1 "$ _0262_ $end
$var wire 1 #$ _0263_ $end
$var wire 1 $$ _0264_ $end
$var wire 1 %$ _0265_ $end
$var wire 1 &$ _0266_ $end
$var wire 1 '$ _0267_ $end
$var wire 1 ($ _0268_ $end
$var wire 1 )$ _0269_ $end
$var wire 1 *$ _0270_ $end
$var wire 1 +$ _0271_ $end
$var wire 1 ,$ _0272_ $end
$var wire 1 -$ _0273_ $end
$var wire 1 .$ _0274_ $end
$var wire 1 /$ _0275_ $end
$var wire 1 0$ _0276_ $end
$var wire 1 1$ _0277_ $end
$var wire 1 2$ _0278_ $end
$var wire 1 3$ _0279_ $end
$var wire 1 4$ _0280_ $end
$var wire 1 5$ _0281_ $end
$var wire 1 6$ _0282_ $end
$var wire 1 7$ _0283_ $end
$var wire 1 8$ _0284_ $end
$var wire 1 9$ _0285_ $end
$var wire 1 :$ _0286_ $end
$var wire 1 ;$ _0287_ $end
$var wire 1 <$ _0288_ $end
$var wire 1 =$ _0289_ $end
$var wire 1 >$ _0290_ $end
$var wire 1 ?$ _0291_ $end
$var wire 1 @$ _0292_ $end
$var wire 1 A$ _0293_ $end
$var wire 1 B$ _0294_ $end
$var wire 1 C$ _0295_ $end
$var wire 1 D$ _0296_ $end
$var wire 1 E$ _0297_ $end
$var wire 1 F$ _0298_ $end
$var wire 1 G$ _0299_ $end
$var wire 1 H$ _0300_ $end
$var wire 1 I$ _0301_ $end
$var wire 1 J$ _0302_ $end
$var wire 1 K$ _0303_ $end
$var wire 1 L$ _0304_ $end
$var wire 1 M$ _0305_ $end
$var wire 1 N$ _0306_ $end
$var wire 1 O$ _0307_ $end
$var wire 1 P$ _0308_ $end
$var wire 1 Q$ _0309_ $end
$var wire 1 R$ _0310_ $end
$var wire 1 S$ _0311_ $end
$var wire 1 T$ _0312_ $end
$var wire 1 U$ _0313_ $end
$var wire 1 V$ _0314_ $end
$var wire 1 W$ _0315_ $end
$var wire 1 X$ _0316_ $end
$var wire 1 Y$ _0317_ $end
$var wire 1 Z$ _0318_ $end
$var wire 1 [$ _0319_ $end
$var wire 1 \$ _0320_ $end
$var wire 1 ]$ _0321_ $end
$var wire 1 ^$ _0322_ $end
$var wire 1 _$ _0323_ $end
$var wire 1 `$ _0324_ $end
$var wire 1 a$ _0325_ $end
$var wire 1 b$ _0326_ $end
$var wire 1 c$ _0327_ $end
$var wire 1 d$ _0328_ $end
$var wire 1 e$ _0329_ $end
$var wire 1 f$ _0330_ $end
$var wire 1 g$ _0331_ $end
$var wire 1 h$ _0332_ $end
$var wire 1 i$ _0333_ $end
$var wire 1 j$ _0334_ $end
$var wire 1 k$ _0335_ $end
$var wire 1 l$ _0336_ $end
$var wire 1 m$ _0337_ $end
$var wire 1 n$ _0338_ $end
$var wire 1 o$ _0339_ $end
$var wire 1 p$ _0340_ $end
$var wire 1 q$ _0341_ $end
$var wire 1 r$ _0342_ $end
$var wire 1 s$ _0343_ $end
$var wire 1 t$ _0344_ $end
$var wire 1 u$ _0345_ $end
$var wire 1 v$ _0346_ $end
$var wire 1 w$ _0347_ $end
$var wire 1 x$ _0348_ $end
$var wire 1 y$ _0349_ $end
$var wire 1 z$ _0350_ $end
$var wire 1 {$ _0351_ $end
$var wire 1 |$ _0352_ $end
$var wire 1 }$ _0353_ $end
$var wire 1 ~$ _0354_ $end
$var wire 1 !% _0355_ $end
$var wire 1 "% _0356_ $end
$var wire 1 #% _0357_ $end
$var wire 1 $% _0358_ $end
$var wire 1 %% _0359_ $end
$var wire 1 &% _0360_ $end
$var wire 1 '% _0361_ $end
$var wire 1 (% _0362_ $end
$var wire 1 )% _0363_ $end
$var wire 1 *% _0364_ $end
$var wire 1 +% _0365_ $end
$var wire 1 ,% _0366_ $end
$var wire 1 -% _0367_ $end
$var wire 1 .% _0368_ $end
$var wire 1 /% _0369_ $end
$var wire 1 0% _0370_ $end
$var wire 1 1% _0371_ $end
$var wire 1 2% _0372_ $end
$var wire 1 3% _0373_ $end
$var wire 1 4% _0374_ $end
$var wire 1 5% _0375_ $end
$var wire 1 6% _0376_ $end
$var wire 1 7% _0377_ $end
$var wire 1 8% _0378_ $end
$var wire 1 9% _0379_ $end
$var wire 1 :% _0380_ $end
$var wire 1 ;% _0381_ $end
$var wire 1 <% _0382_ $end
$var wire 1 =% _0383_ $end
$var wire 1 >% _0384_ $end
$var wire 1 ?% _0385_ $end
$var wire 1 @% _0386_ $end
$var wire 1 A% _0387_ $end
$var wire 1 B% _0388_ $end
$var wire 1 C% _0389_ $end
$var wire 1 D% _0390_ $end
$var wire 1 E% _0391_ $end
$var wire 1 F% _0392_ $end
$var wire 1 G% _0393_ $end
$var wire 1 H% _0394_ $end
$var wire 1 I% _0395_ $end
$var wire 1 J% _0396_ $end
$var wire 1 K% _0397_ $end
$var wire 1 L% _0398_ $end
$var wire 1 M% _0399_ $end
$var wire 1 N% _0400_ $end
$var wire 1 O% _0401_ $end
$var wire 1 P% _0402_ $end
$var wire 1 Q% _0403_ $end
$var wire 1 R% _0404_ $end
$var wire 1 S% _0405_ $end
$var wire 1 T% _0406_ $end
$var wire 1 U% _0407_ $end
$var wire 1 V% _0408_ $end
$var wire 1 W% _0409_ $end
$var wire 1 X% _0410_ $end
$var wire 1 Y% _0411_ $end
$var wire 1 Z% _0412_ $end
$var wire 1 [% _0413_ $end
$var wire 1 \% _0414_ $end
$var wire 1 ]% _0415_ $end
$var wire 1 ^% _0416_ $end
$var wire 1 _% _0417_ $end
$var wire 1 `% _0418_ $end
$var wire 1 a% _0419_ $end
$var wire 1 b% _0420_ $end
$var wire 1 c% _0421_ $end
$var wire 1 d% _0422_ $end
$var wire 1 e% _0423_ $end
$var wire 1 f% _0424_ $end
$var wire 1 g% _0425_ $end
$var wire 1 h% _0426_ $end
$var wire 1 i% _0427_ $end
$var wire 1 j% _0428_ $end
$var wire 1 k% _0429_ $end
$var wire 1 l% _0430_ $end
$var wire 1 m% _0431_ $end
$var wire 1 n% _0432_ $end
$var wire 1 o% _0433_ $end
$var wire 1 p% _0434_ $end
$var wire 1 q% _0435_ $end
$var wire 1 r% _0436_ $end
$var wire 1 s% _0437_ $end
$var wire 1 t% _0438_ $end
$var wire 1 u% _0439_ $end
$var wire 1 v% _0440_ $end
$var wire 1 w% _0441_ $end
$var wire 1 x% _0442_ $end
$var wire 1 y% _0443_ $end
$var wire 1 z% _0444_ $end
$var wire 1 {% _0445_ $end
$var wire 1 |% _0446_ $end
$var wire 1 }% _0447_ $end
$var wire 1 ~% _0448_ $end
$var wire 1 !& _0449_ $end
$var wire 1 "& _0450_ $end
$var wire 1 #& _0451_ $end
$var wire 1 $& _0452_ $end
$var wire 1 %& _0453_ $end
$var wire 1 && _0454_ $end
$var wire 1 '& _0455_ $end
$var wire 1 (& _0456_ $end
$var wire 1 )& _0457_ $end
$var wire 1 *& _0458_ $end
$var wire 1 +& _0459_ $end
$var wire 1 ,& _0460_ $end
$var wire 1 -& _0461_ $end
$var wire 1 .& _0462_ $end
$var wire 1 /& _0463_ $end
$var wire 1 0& _0464_ $end
$var wire 1 1& _0465_ $end
$var wire 1 2& _0466_ $end
$var wire 1 3& _0467_ $end
$var wire 1 4& _0468_ $end
$var wire 1 5& _0469_ $end
$var wire 1 6& _0470_ $end
$var wire 1 7& _0471_ $end
$var wire 1 8& _0472_ $end
$var wire 1 9& _0473_ $end
$var wire 1 :& _0474_ $end
$var wire 1 ;& _0475_ $end
$var wire 1 <& _0476_ $end
$var wire 1 =& _0477_ $end
$var wire 1 >& _0478_ $end
$var wire 1 ?& _0479_ $end
$var wire 1 @& _0480_ $end
$var wire 1 A& _0481_ $end
$var wire 1 B& _0482_ $end
$var wire 1 C& _0483_ $end
$var wire 1 D& _0484_ $end
$var wire 1 E& _0485_ $end
$var wire 1 F& _0486_ $end
$var wire 1 G& _0487_ $end
$var wire 1 H& _0488_ $end
$var wire 1 I& _0489_ $end
$var wire 1 J& _0490_ $end
$var wire 1 K& _0491_ $end
$var wire 1 L& _0492_ $end
$var wire 1 M& _0493_ $end
$var wire 1 N& _0494_ $end
$var wire 1 O& _0495_ $end
$var wire 1 P& _0496_ $end
$var wire 1 Q& _0497_ $end
$var wire 1 R& _0498_ $end
$var wire 1 S& _0499_ $end
$var wire 1 T& _0500_ $end
$var wire 1 U& _0501_ $end
$var wire 1 V& _0502_ $end
$var wire 1 W& _0503_ $end
$var wire 1 X& _0504_ $end
$var wire 1 Y& _0505_ $end
$var wire 1 Z& _0506_ $end
$var wire 1 [& _0507_ $end
$var wire 1 \& _0508_ $end
$var wire 1 ]& _0509_ $end
$var wire 1 ^& _0510_ $end
$var wire 1 _& _0511_ $end
$var wire 1 `& _0512_ $end
$var wire 1 a& _0513_ $end
$var wire 1 b& _0514_ $end
$var wire 1 c& _0515_ $end
$var wire 1 d& _0516_ $end
$var wire 1 e& _0517_ $end
$var wire 1 f& _0518_ $end
$var wire 1 g& _0519_ $end
$var wire 1 h& _0520_ $end
$var wire 1 i& _0521_ $end
$var wire 1 j& _0522_ $end
$var wire 1 k& _0523_ $end
$var wire 1 l& _0524_ $end
$var wire 1 m& _0525_ $end
$var wire 1 n& _0526_ $end
$var wire 1 o& _0527_ $end
$var wire 1 p& _0528_ $end
$var wire 1 q& _0529_ $end
$var wire 1 r& _0530_ $end
$var wire 1 s& _0531_ $end
$var wire 1 t& _0532_ $end
$var wire 1 u& _0533_ $end
$var wire 1 v& _0534_ $end
$var wire 1 w& _0535_ $end
$var wire 1 x& _0536_ $end
$var wire 1 y& _0537_ $end
$var wire 1 z& _0538_ $end
$var wire 1 {& _0539_ $end
$var wire 1 |& _0540_ $end
$var wire 1 }& _0541_ $end
$var wire 1 ~& _0542_ $end
$var wire 1 !' _0543_ $end
$var wire 1 "' _0544_ $end
$var wire 1 #' _0545_ $end
$var wire 1 $' _0546_ $end
$var wire 1 %' _0547_ $end
$var wire 1 &' _0548_ $end
$var wire 1 '' _0549_ $end
$var wire 1 (' _0550_ $end
$var wire 1 )' _0551_ $end
$var wire 1 *' _0552_ $end
$var wire 1 +' _0553_ $end
$var wire 1 ,' _0554_ $end
$var wire 1 -' _0555_ $end
$var wire 1 .' _0556_ $end
$var wire 1 /' _0557_ $end
$var wire 1 0' _0558_ $end
$var wire 1 1' _0559_ $end
$var wire 1 2' _0560_ $end
$var wire 1 3' _0561_ $end
$var wire 1 4' _0562_ $end
$var wire 1 5' _0563_ $end
$var wire 1 6' _0564_ $end
$var wire 1 7' _0565_ $end
$var wire 1 8' _0566_ $end
$var wire 1 9' _0567_ $end
$var wire 1 :' _0568_ $end
$var wire 1 ;' _0569_ $end
$var wire 1 <' _0570_ $end
$var wire 1 =' _0571_ $end
$var wire 1 >' _0572_ $end
$var wire 1 ?' _0573_ $end
$var wire 1 @' _0574_ $end
$var wire 1 A' _0575_ $end
$var wire 1 B' _0576_ $end
$var wire 1 C' _0577_ $end
$var wire 1 D' _0578_ $end
$var wire 1 E' _0579_ $end
$var wire 1 F' _0580_ $end
$var wire 1 G' _0581_ $end
$var wire 1 H' _0582_ $end
$var wire 1 I' _0583_ $end
$var wire 1 J' _0584_ $end
$var wire 1 K' _0585_ $end
$var wire 1 L' _0586_ $end
$var wire 1 M' _0587_ $end
$var wire 1 N' _0588_ $end
$var wire 1 O' _0589_ $end
$var wire 1 P' _0590_ $end
$var wire 1 Q' _0591_ $end
$var wire 1 R' _0592_ $end
$var wire 1 S' _0593_ $end
$var wire 1 T' _0594_ $end
$var wire 1 U' _0595_ $end
$var wire 1 V' _0596_ $end
$var wire 1 W' _0597_ $end
$var wire 1 X' _0598_ $end
$var wire 1 Y' _0599_ $end
$var wire 1 Z' _0600_ $end
$var wire 1 [' _0601_ $end
$var wire 1 \' _0602_ $end
$var wire 1 ]' _0603_ $end
$var wire 1 ^' _0604_ $end
$var wire 1 _' _0605_ $end
$var wire 1 `' _0606_ $end
$var wire 1 a' _0607_ $end
$var wire 1 b' _0608_ $end
$var wire 1 c' _0609_ $end
$var wire 1 d' _0610_ $end
$var wire 1 e' _0611_ $end
$var wire 1 f' _0612_ $end
$var wire 1 g' _0613_ $end
$var wire 1 h' _0614_ $end
$var wire 1 i' _0615_ $end
$var wire 1 j' _0616_ $end
$var wire 32 k' accum_out [31:0] $end
$var wire 1 $ accum_valid $end
$var wire 1 * accumulate_en $end
$var wire 1 + clk $end
$var wire 8 l' data_in [7:0] $end
$var wire 8 m' data_out [7:0] $end
$var wire 1 - data_valid $end
$var wire 1 " data_valid_out $end
$var wire 1 . mac_clear $end
$var wire 1 / pe_enable $end
$var wire 1 0 rst_n $end
$var wire 8 n' weight_in [7:0] $end
$var wire 8 o' weight_out [7:0] $end
$var wire 32 p' mac_result [31:0] $end
$var reg 32 q' accumulator [31:0] $end
$upscope $end
$scope task run_basic_functionality_test $end
$upscope $end
$scope task run_mac_operation_test $end
$var integer 32 r' i [31:0] $end
$upscope $end
$scope task run_memory_access_test $end
$upscope $end
$scope task run_noc_communication_test $end
$upscope $end
$scope task run_timing_margin_test $end
$var integer 32 s' fast_cycles [31:0] $end
$upscope $end
$upscope $end
$enddefinitions $end
$comment Show the parameter values. $end
$dumpall
b11000011010100000 )
b11000010110111001101110011011110111010001100001011101000110010101100100 (
b10011100010000 '
b11111010000 &
$end
#0
$dumpvars
bx s'
bx r'
b0 q'
b0 p'
b0 o'
b0 n'
b0 m'
b0 l'
b0 k'
0j'
1i'
0h'
0g'
1f'
1e'
0d'
1c'
0b'
1a'
1`'
0_'
1^'
1]'
0\'
1['
0Z'
1Y'
1X'
0W'
1V'
1U'
0T'
1S'
0R'
1Q'
0P'
0O'
1N'
1M'
1L'
1K'
0J'
0I'
1H'
0G'
1F'
1E'
0D'
1C'
0B'
1A'
1@'
0?'
0>'
1='
1<'
1;'
1:'
19'
18'
07'
06'
05'
04'
13'
12'
11'
00'
1/'
0.'
1-'
1,'
0+'
1*'
1)'
0('
1''
0&'
0%'
1$'
0#'
0"'
0!'
0~&
1}&
1|&
1{&
0z&
1y&
0x&
1w&
1v&
1u&
1t&
0s&
0r&
0q&
0p&
1o&
1n&
1m&
0l&
1k&
0j&
1i&
1h&
0g&
1f&
0e&
0d&
1c&
0b&
0a&
0`&
0_&
1^&
1]&
1\&
0[&
1Z&
0Y&
1X&
1W&
1V&
1U&
0T&
0S&
0R&
0Q&
1P&
1O&
1N&
0M&
1L&
0K&
1J&
0I&
0H&
1G&
0F&
0E&
1D&
0C&
0B&
1A&
0@&
0?&
0>&
0=&
1<&
1;&
1:&
09&
18&
07&
06&
15&
14&
03&
12&
01&
10&
1/&
1.&
1-&
0,&
0+&
0*&
0)&
1(&
0'&
1&&
1%&
0$&
1#&
1"&
0!&
1~%
0}%
1|%
0{%
1z%
1y%
0x%
0w%
1v%
1u%
0t%
1s%
0r%
0q%
1p%
1o%
0n%
1m%
0l%
1k%
1j%
0i%
1h%
1g%
1f%
0e%
1d%
1c%
0b%
1a%
0`%
0_%
1^%
1]%
0\%
1[%
0Z%
0Y%
1X%
0W%
0V%
0U%
0T%
1S%
0R%
1Q%
1P%
0O%
0N%
1M%
0L%
1K%
1J%
0I%
1H%
0G%
1F%
1E%
0D%
1C%
1B%
1A%
0@%
1?%
1>%
0=%
1<%
1;%
0:%
19%
08%
07%
06%
15%
14%
03%
12%
01%
00%
1/%
1.%
0-%
1,%
0+%
1*%
0)%
1(%
1'%
1&%
0%%
1$%
0#%
1"%
0!%
1~$
1}$
1|$
0{$
1z$
0y$
1x$
0w$
0v$
0u$
1t$
0s$
0r$
1q$
1p$
1o$
1n$
0m$
0l$
0k$
0j$
1i$
0h$
1g$
1f$
1e$
1d$
0c$
0b$
1a$
0`$
1_$
1^$
0]$
1\$
1[$
1Z$
0Y$
1X$
0W$
1V$
0U$
1T$
1S$
1R$
0Q$
1P$
0O$
1N$
0M$
0L$
0K$
1J$
0I$
1H$
1G$
0F$
1E$
0D$
0C$
1B$
1A$
0@$
1?$
0>$
0=$
1<$
1;$
0:$
19$
08$
17$
06$
15$
14$
13$
02$
11$
00$
1/$
0.$
1-$
1,$
1+$
0*$
1)$
0($
1'$
0&$
1%$
0$$
1#$
0"$
1!$
1~#
1}#
1|#
0{#
0z#
0y#
0x#
0w#
0v#
0u#
1t#
0s#
0r#
1q#
0p#
0o#
1n#
0m#
0l#
0k#
0j#
1i#
0h#
1g#
1f#
0e#
1d#
1c#
0b#
1a#
0`#
1_#
1^#
0]#
1\#
1[#
1Z#
0Y#
1X#
0W#
1V#
0U#
1T#
1S#
1R#
0Q#
1P#
0O#
1N#
0M#
1L#
0K#
1J#
0I#
1H#
1G#
1F#
1E#
0D#
0C#
0B#
0A#
1@#
0?#
1>#
1=#
0<#
1;#
1:#
09#
08#
17#
16#
05#
14#
13#
02#
11#
00#
0/#
0.#
0-#
0,#
1+#
0*#
1)#
1(#
1'#
1&#
0%#
0$#
1##
0"#
1!#
0~"
1}"
0|"
1{"
0z"
1y"
1x"
1w"
1v"
0u"
0t"
0s"
0r"
1q"
0p"
1o"
1n"
1m"
0l"
1k"
1j"
1i"
1h"
0g"
1f"
0e"
1d"
0c"
0b"
0a"
1`"
0_"
1^"
0]"
1\"
1["
1Z"
1Y"
0X"
1W"
0V"
1U"
0T"
1S"
0R"
1Q"
0P"
1O"
0N"
1M"
1L"
1K"
1J"
0I"
0H"
0G"
0F"
1E"
0D"
1C"
1B"
1A"
0@"
1?"
1>"
1="
0<"
0;"
1:"
19"
08"
17"
16"
05"
04"
03"
12"
01"
00"
0/"
1."
0-"
1,"
1+"
1*"
1)"
0("
0'"
0&"
0%"
1$"
0#"
1""
1!"
1~
0}
1|
1{
1z
1y
1x
0w
0v
1u
0t
0s
0r
1q
0p
1o
0n
1m
1l
0k
1j
1i
1h
0g
0f
0e
1d
0c
1b
1a
1`
0_
1^
1]
1\
0[
0Z
1Y
1X
0W
1V
0U
1T
1S
0R
0Q
1P
0O
1N
1M
1L
0K
1J
1I
1H
1G
1F
0E
0D
1C
0B
1A
0@
1?
1>
0=
0<
0;
0:
19
08
17
06
b0 5
b0 4
b0 3
b0 2
b0 1
00
0/
0.
0-
b0 ,
0+
0*
b0 %
0$
b0 #
0"
b0 !
$end
#1000
b1 2
1+
#2000
0+
#3000
b10 2
1+
#4000
0+
#5000
b11 2
1+
#6000
0+
#7000
b100 2
1+
#8000
0+
#9000
b101 2
1+
#10000
0+
#11000
b110 2
1+
#12000
0+
#13000
b111 2
1+
#14000
0+
#15000
b1000 2
1+
#16000
0+
#17000
b1001 2
1+
#18000
0+
#19000
b1010 2
10
1+
#20000
0+
#21000
b1011 2
1+
#22000
0+
#23000
b1100 2
1+
#24000
0+
#25000
b1101 2
1+
#26000
0+
#27000
b1110 2
1+
#28000
0+
#29000
b1 4
b1111 2
1+
#30000
0+
#31000
b10000 2
1/
1+
#32000
0+
#33000
b10001 2
1+
#34000
0+
#35000
b10010 2
1+
#36000
0+
#37000
b10011 2
1+
#38000
0+
#39000
b10100 2
1+
#40000
0+
#41000
b10101 2
1+
#42000
0+
#43000
b10110 2
1+
#44000
0+
#45000
b10111 2
1+
#46000
0+
#47000
b11000 2
1+
#48000
0+
#49000
b11001 2
1+
#50000
0+
#51000
b10 4
b100100 2
1+
#52000
0+
#53000
16
0`'
b100101 2
1.
1+
#54000
0+
#55000
06
1`'
b0 r'
1*
0.
b100110 2
1+
#56000
0+
#57000
b1 p'
0e'
1d'
16
0c'
1b'
1_'
b100111 2
1$
1"
1-
b1 !
b1 o'
b1 1
b1 n'
b1 #
b1 m'
b1 ,
b1 l'
1+
#58000
0+
#59000
0a'
b1 %
b1 k'
b1 q'
b1 p'
0e'
0d'
06
1c'
0_'
0$
0"
0-
b101000 2
1+
#60000
0+
#61000
b101001 2
1+
#62000
0+
#63000
b101010 2
1+
#64000
0+
#65000
b101011 2
1+
#66000
0+
#67000
b101100 2
1+
#68000
0+
#69000
b1 r'
b110011 2
b1 5
1+
#70000
0+
